bamt_fix_0.tar,1329982670,install
bamt5_fix_1a.tar,1330153564,install
bamt5_fix_2.tar,1330825104,install
bamt5_fix_3.tar,1330825106,install
bamt5_fix_4.tar,1330825108,install
bamt5_fix_5.tar,1330825109,install
bamt5_fix_6.tar,1330825110,install
bamt5_fix_7.tar,1330825111,install
bamt5_fix_8.tar,1330825114,install
bamt5_fix_9.tar,1330825116,install
bamt5_fix_10.tar,1330825117,install
bamt5_fix_11.tar,1330825121,install
bamt5_fix_12.tar,1330825121,install
bamt5_fix_13.tar,1330825126,install
bamt5_fix_14.tar,1330825136,install
bamt5_fix_15.tar,1366274697,install
